%YAML 1.1
%TAG !u! tag:unity3d.com,2011:
--- !u!1045 &1
EditorBuildSettings:
  m_ObjectHideFlags: 0
  serializedVersion: 2
  m_Scenes: []
  m_configObjects:
    Unity.XR.Oculus.Settings: {fileID: 11400000, guid: 8a5c8c8d5faf148578c2cf8738815acd, type: 2}
    com.unity.xr.management.loader_settings: {fileID: 11400000, guid: 3e37be71a79d64713b12ad55c469fbb9, type: 2}
    com.unity.xr.openxr.settings4: {fileID: 11400000, guid: 3d5d8891d3a7541cb9e0b39a723ff1d5, type: 2}
